2019-11-13 08:38:45	203.154.116.83	service: /HosApp/dev/?/token	data: {"grantType":"client_credentials","clientId":"1241829b399566934630c59775fba554","hospitalNumber":"0245918"}
======================================================================================================================================================
2019-11-13 08:38:46	203.154.116.83	service: /HosApp/dev/?/patientProfile	data: {"hospitalNumber":"0245918","language":"TH"}
======================================================================================================================================================
2019-11-13 08:38:47	203.154.116.83	service: /HosApp/dev/?/appointmentList	data: {"hospitalNumber":"0245918","language":"TH"}
======================================================================================================================================================
2019-11-13 08:38:47	203.154.116.83	service: /HosApp/dev/?/getQueueInfo	data: {"hospitalNumber":"0245918","language":"TH","queueList":[{"queueSystem":"","queueNo":,"appointmentTime":""}],"requestType":"2","fromSystem":"HosApp"}
======================================================================================================================================================
2019-11-13 08:38:50	203.154.116.83	service: /HosApp/dev/?/appointmentList	data: {"hospitalNumber":"0245918","language":"TH"}
======================================================================================================================================================
2019-11-13 08:38:51	203.154.116.83	service: /HosApp/dev/?/appointmentList	data: {"hospitalNumber":"0245918","language":"TH"}
======================================================================================================================================================
2019-11-13 08:38:53	203.154.116.83	service: /HosApp/dev/?/patientProfile	data: {"hospitalNumber":"0245918","language":"TH"}
======================================================================================================================================================
2019-11-13 08:38:53	203.154.116.83	service: /HosApp/dev/?/appointmentList	data: {"hospitalNumber":"0245918","language":"TH"}
======================================================================================================================================================
2019-11-13 08:38:54	203.154.116.83	service: /HosApp/dev/?/getQueueInfo	data: {"hospitalNumber":"0245918","language":"TH","queueList":[{"queueSystem":"","queueNo":,"appointmentTime":""}],"requestType":"2","fromSystem":"HosApp"}
======================================================================================================================================================
2019-11-13 10:21:35	203.154.116.83	service: /HosApp/dev/?/token	data: {"grantType":"client_credentials","clientId":"1241829b399566934630c59775fba554","hospitalNumber":"0039310"}
======================================================================================================================================================
2019-11-13 10:21:35	203.154.116.83	service: /HosApp/dev/?/patientProfile	data: {"hospitalNumber":"0039310","language":"TH"}
======================================================================================================================================================
2019-11-13 10:21:36	203.154.116.83	service: /HosApp/dev/?/patientProfile	data: {"hospitalNumber":"0039310","language":"TH"}
======================================================================================================================================================
2019-11-13 10:21:37	203.154.116.83	service: /HosApp/dev/?/appointmentList	data: {"hospitalNumber":"0039310","language":"TH"}
======================================================================================================================================================
2019-11-13 10:21:37	203.154.116.83	service: /HosApp/dev/?/getQueueInfo	data: {"hospitalNumber":"0039310","language":"TH","queueList":[{"queueSystem":"","queueNo":,"appointmentTime":""}],"requestType":"2","fromSystem":"HosApp"}
======================================================================================================================================================
2019-11-13 11:03:36	203.154.116.83	service: /HosApp/dev/?/token	data: {"grantType":"client_credentials","clientId":"1241829b399566934630c59775fba554","hospitalNumber":"0554646"}
======================================================================================================================================================
2019-11-13 11:03:37	203.154.116.83	service: /HosApp/dev/?/patientProfile	data: {"hospitalNumber":"0554646","language":"TH"}
======================================================================================================================================================
2019-11-13 11:03:38	203.154.116.83	service: /HosApp/dev/?/appointmentList	data: {"hospitalNumber":"0554646","language":"TH"}
======================================================================================================================================================
2019-11-13 11:03:38	203.154.116.83	service: /HosApp/dev/?/getQueueInfo	data: {"hospitalNumber":"0554646","language":"TH","queueList":[{"queueSystem":"","queueNo":,"appointmentTime":""}],"requestType":"2","fromSystem":"HosApp"}
======================================================================================================================================================
2019-11-13 11:03:48	203.154.116.83	service: /HosApp/dev/?/patientProfile	data: {"hospitalNumber":"0554646","language":"TH"}
======================================================================================================================================================
2019-11-13 11:03:48	203.154.116.83	service: /HosApp/dev/?/appointmentList	data: {"hospitalNumber":"0554646","language":"TH"}
======================================================================================================================================================
2019-11-13 11:03:49	203.154.116.83	service: /HosApp/dev/?/getQueueInfo	data: {"hospitalNumber":"0554646","language":"TH","queueList":[{"queueSystem":"","queueNo":,"appointmentTime":""}],"requestType":"2","fromSystem":"HosApp"}
======================================================================================================================================================
2019-11-13 11:03:55	203.154.116.83	service: /HosApp/dev/?/patientProfile	data: {"hospitalNumber":"0554646","language":"TH"}
======================================================================================================================================================
2019-11-13 11:03:56	203.154.116.83	service: /HosApp/dev/?/appointmentList	data: {"hospitalNumber":"0554646","language":"TH"}
======================================================================================================================================================
2019-11-13 11:03:56	203.154.116.83	service: /HosApp/dev/?/getQueueInfo	data: {"hospitalNumber":"0554646","language":"TH","queueList":[{"queueSystem":"","queueNo":,"appointmentTime":""}],"requestType":"2","fromSystem":"HosApp"}
======================================================================================================================================================
2019-11-13 12:30:01	203.154.116.83	service: /HosApp/dev/?/token	data: {"grantType":"client_credentials","clientId":"1241829b399566934630c59775fba554","hospitalNumber":"0245918"}
======================================================================================================================================================
2019-11-13 12:30:02	203.154.116.83	service: /HosApp/dev/?/patientProfile	data: {"hospitalNumber":"0245918","language":"TH"}
======================================================================================================================================================
2019-11-13 12:30:03	203.154.116.83	service: /HosApp/dev/?/appointmentList	data: {"hospitalNumber":"0245918","language":"TH"}
======================================================================================================================================================
2019-11-13 12:30:03	203.154.116.83	service: /HosApp/dev/?/getQueueInfo	data: {"hospitalNumber":"0245918","language":"TH","queueList":[{"queueSystem":"","queueNo":,"appointmentTime":""}],"requestType":"2","fromSystem":"HosApp"}
======================================================================================================================================================
2019-11-13 12:30:05	203.154.116.83	service: /HosApp/dev/?/appointmentList	data: {"hospitalNumber":"0245918","language":"TH"}
======================================================================================================================================================
2019-11-13 12:30:05	203.154.116.83	service: /HosApp/dev/?/appointmentList	data: {"hospitalNumber":"0245918","language":"TH"}
======================================================================================================================================================
2019-11-13 12:30:07	203.154.116.83	service: /HosApp/dev/?/appointmentDetail	data: {"hospitalNumber":"0245918","language":"TH","appointmentType":"OPD","appointmentId":"0245918|2019-11-13|O41"}
======================================================================================================================================================
2019-11-13 12:30:08	203.154.116.83	service: /HosApp/dev/?/patientProfile	data: {"hospitalNumber":"0245918","language":"TH"}
======================================================================================================================================================
2019-11-13 12:30:13	203.154.116.83	service: /HosApp/dev/?/getJourneyStep	data: {"hospitalNumber":"0245918","appointmentId":"0245918|2019-11-13|O41"}
======================================================================================================================================================
2019-11-13 12:30:24	203.154.116.83	service: /HosApp/dev/?/appointmentList	data: {"hospitalNumber":"0245918","language":"TH"}
======================================================================================================================================================
2019-11-13 12:30:26	203.154.116.83	service: /HosApp/dev/?/appointmentList	data: {"hospitalNumber":"0245918","language":"TH"}
======================================================================================================================================================
2019-11-13 12:30:27	203.154.116.83	service: /HosApp/dev/?/getQueueInfo	data: {"hospitalNumber":"0245918","language":"TH","queueList":[{"queueSystem":"","queueNo":,"appointmentTime":""}],"requestType":"2","fromSystem":"HosApp"}
======================================================================================================================================================
2019-11-13 12:30:30	203.154.116.83	service: /HosApp/dev/?/appointmentList	data: {"hospitalNumber":"0245918","language":"TH"}
======================================================================================================================================================
2019-11-13 12:30:38	203.154.116.83	service: /HosApp/dev/?/patientProfile	data: {"hospitalNumber":"0245918","language":"TH"}
======================================================================================================================================================
2019-11-13 12:30:39	203.154.116.83	service: /HosApp/dev/?/appointmentList	data: {"hospitalNumber":"0245918","language":"TH"}
======================================================================================================================================================
2019-11-13 12:30:39	203.154.116.83	service: /HosApp/dev/?/getQueueInfo	data: {"hospitalNumber":"0245918","language":"TH","queueList":[{"queueSystem":"","queueNo":,"appointmentTime":""}],"requestType":"2","fromSystem":"HosApp"}
======================================================================================================================================================
2019-11-13 12:30:56	203.154.116.83	service: /HosApp/dev/?/token	data: {"grantType":"client_credentials","clientId":"1241829b399566934630c59775fba554","hospitalNumber":"0245918"}
======================================================================================================================================================
2019-11-13 12:30:57	203.154.116.83	service: /HosApp/dev/?/patientProfile	data: {"hospitalNumber":"0245918","language":"TH"}
======================================================================================================================================================
2019-11-13 12:30:57	203.154.116.83	service: /HosApp/dev/?/appointmentList	data: {"hospitalNumber":"0245918","language":"TH"}
======================================================================================================================================================
2019-11-13 12:30:58	203.154.116.83	service: /HosApp/dev/?/getQueueInfo	data: {"hospitalNumber":"0245918","language":"TH","queueList":[{"queueSystem":"","queueNo":,"appointmentTime":""}],"requestType":"2","fromSystem":"HosApp"}
======================================================================================================================================================
2019-11-13 13:14:54	203.154.116.83	service: /HosApp/dev/?/patientProfile	data: {"hospitalNumber":"0245918","language":"TH"}
======================================================================================================================================================
2019-11-13 13:14:55	203.154.116.83	service: /HosApp/dev/?/appointmentList	data: {"hospitalNumber":"0245918","language":"TH"}
======================================================================================================================================================
2019-11-13 13:14:55	203.154.116.83	service: /HosApp/dev/?/getQueueInfo	data: {"hospitalNumber":"0245918","language":"TH","queueList":[{"queueSystem":"","queueNo":,"appointmentTime":""}],"requestType":"2","fromSystem":"HosApp"}
======================================================================================================================================================
2019-11-13 13:14:57	203.154.116.83	service: /HosApp/dev/?/appointmentList	data: {"hospitalNumber":"0245918","language":"TH"}
======================================================================================================================================================
2019-11-13 13:14:57	203.154.116.83	service: /HosApp/dev/?/appointmentList	data: {"hospitalNumber":"0245918","language":"TH"}
======================================================================================================================================================
2019-11-13 13:15:08	203.154.116.83	service: /HosApp/dev/?/appointmentDetail	data: {"hospitalNumber":"0245918","language":"TH","appointmentType":"OPD","appointmentId":"0245918|2020-03-09|O41"}
======================================================================================================================================================
2019-11-13 13:15:08	203.154.116.83	service: /HosApp/dev/?/patientProfile	data: {"hospitalNumber":"0245918","language":"TH"}
======================================================================================================================================================
2019-11-13 13:15:15	203.154.116.83	service: /HosApp/dev/?/appointmentList	data: {"hospitalNumber":"0245918","language":"TH"}
======================================================================================================================================================
2019-11-13 13:15:17	203.154.116.83	service: /HosApp/dev/?/appointmentDetail	data: {"hospitalNumber":"0245918","language":"TH","appointmentType":"OPD","appointmentId":"0245918|2019-11-13|O41"}
======================================================================================================================================================
2019-11-13 13:15:18	203.154.116.83	service: /HosApp/dev/?/patientProfile	data: {"hospitalNumber":"0245918","language":"TH"}
======================================================================================================================================================
2019-11-13 13:15:22	203.154.116.83	service: /HosApp/dev/?/appointmentList	data: {"hospitalNumber":"0245918","language":"TH"}
======================================================================================================================================================
2019-11-13 13:15:24	203.154.116.83	service: /HosApp/dev/?/appointmentDetail	data: {"hospitalNumber":"0245918","language":"TH","appointmentType":"OPD","appointmentId":"0245918|2020-03-09|O41"}
======================================================================================================================================================
2019-11-13 13:15:25	203.154.116.83	service: /HosApp/dev/?/patientProfile	data: {"hospitalNumber":"0245918","language":"TH"}
======================================================================================================================================================
2019-11-13 13:15:30	203.154.116.83	service: /HosApp/dev/?/appointmentList	data: {"hospitalNumber":"0245918","language":"TH"}
======================================================================================================================================================
2019-11-13 13:22:21	203.154.116.83	service: /HosApp/dev/?/appointmentList	data: {"hospitalNumber":"0245918","language":"TH"}
======================================================================================================================================================
2019-11-13 13:22:37	203.154.116.83	service: /HosApp/dev/?/appointmentList	data: {"hospitalNumber":"0245918","language":"TH"}
======================================================================================================================================================
2019-11-13 13:22:39	203.154.116.83	service: /HosApp/dev/?/appointmentDetail	data: {"hospitalNumber":"0245918","language":"TH","appointmentType":"OPD","appointmentId":"0245918|2020-03-09|O41"}
======================================================================================================================================================
2019-11-13 13:22:39	203.154.116.83	service: /HosApp/dev/?/patientProfile	data: {"hospitalNumber":"0245918","language":"TH"}
======================================================================================================================================================
2019-11-13 13:22:47	203.154.116.83	service: /HosApp/dev/?/appointmentList	data: {"hospitalNumber":"0245918","language":"TH"}
======================================================================================================================================================
2019-11-13 13:22:47	203.154.116.83	service: /HosApp/dev/?/patientProfile	data: {"hospitalNumber":"0245918","language":"TH"}
======================================================================================================================================================
2019-11-13 13:22:48	203.154.116.83	service: /HosApp/dev/?/appointmentList	data: {"hospitalNumber":"0245918","language":"TH"}
======================================================================================================================================================
2019-11-13 13:22:48	203.154.116.83	service: /HosApp/dev/?/getQueueInfo	data: {"hospitalNumber":"0245918","language":"TH","queueList":[{"queueSystem":"","queueNo":,"appointmentTime":""}],"requestType":"2","fromSystem":"HosApp"}
======================================================================================================================================================
2019-11-13 13:45:09	203.154.116.83	service: /HosApp/dev/?/patientProfile	data: {"hospitalNumber":"0245918","language":"TH"}
======================================================================================================================================================
2019-11-13 13:45:09	203.154.116.83	service: /HosApp/dev/?/appointmentList	data: {"hospitalNumber":"0245918","language":"TH"}
======================================================================================================================================================
2019-11-13 13:45:10	203.154.116.83	service: /HosApp/dev/?/getQueueInfo	data: {"hospitalNumber":"0245918","language":"TH","queueList":[{"queueSystem":"","queueNo":,"appointmentTime":""}],"requestType":"2","fromSystem":"HosApp"}
======================================================================================================================================================
2019-11-13 13:45:26	203.154.116.83	service: /HosApp/dev/?/patientProfile	data: {"hospitalNumber":"0245918","language":"TH"}
======================================================================================================================================================
2019-11-13 13:45:27	203.154.116.83	service: /HosApp/dev/?/appointmentList	data: {"hospitalNumber":"0245918","language":"TH"}
======================================================================================================================================================
2019-11-13 13:45:27	203.154.116.83	service: /HosApp/dev/?/getQueueInfo	data: {"hospitalNumber":"0245918","language":"TH","queueList":[{"queueSystem":"","queueNo":,"appointmentTime":""}],"requestType":"2","fromSystem":"HosApp"}
======================================================================================================================================================
2019-11-13 13:57:22	203.154.116.83	service: /HosApp/dev/?/appointmentList	data: {"hospitalNumber":"0245918","language":"TH"}
======================================================================================================================================================
2019-11-13 13:57:23	203.154.116.83	service: /HosApp/dev/?/getQueueInfo	data: {"hospitalNumber":"0245918","language":"TH","queueList":[{"queueSystem":"","queueNo":,"appointmentTime":""}],"requestType":"2","fromSystem":"HosApp"}
======================================================================================================================================================
2019-11-13 14:06:23	203.154.116.83	service: /HosApp/dev/?/patientProfile	data: {"hospitalNumber":"0245918","language":"TH"}
======================================================================================================================================================
2019-11-13 14:06:24	203.154.116.83	service: /HosApp/dev/?/appointmentList	data: {"hospitalNumber":"0245918","language":"TH"}
======================================================================================================================================================
2019-11-13 14:06:24	203.154.116.83	service: /HosApp/dev/?/getQueueInfo	data: {"hospitalNumber":"0245918","language":"TH","queueList":[{"queueSystem":"","queueNo":,"appointmentTime":""}],"requestType":"2","fromSystem":"HosApp"}
======================================================================================================================================================
