2019-09-21 19:50:49	service: /HosApp/dev/?/token	data: {"grantType":"client_credentials","clientId":"1241829b399566934630c59775fba554","hospitalNumber":"0454728"}
======================================================================================================================================================
2019-09-21 19:50:49	service: /HosApp/dev/?/patientProfile	data: {"hospitalNumber":"0454728","language":"TH"}
======================================================================================================================================================
2019-09-21 19:50:50	service: /HosApp/dev/?/appointmentList	data: {"hospitalNumber":"0454728","language":"TH"}
======================================================================================================================================================
2019-09-21 19:51:05	service: /HosApp/dev/?/appointmentList	data: {"hospitalNumber":"0454728","language":"TH"}
======================================================================================================================================================
