2019-09-07 00:07:05	service: /HosApp/dev/?/token	data: {"grantType":"client_credentials","clientId":"a20034a1829a9c4b761aba9d9296cd5f","hospitalNumber":"0400880"}
======================================================================================================================================================
2019-09-07 00:07:05	service: /HosApp/dev/?/patientProfile	data: {"hospitalNumber":"0400880","language":"TH"}
======================================================================================================================================================
2019-09-07 00:07:06	service: /HosApp/dev/?/appointmentList	data: {"hospitalNumber":"0400880","language":"TH"}
======================================================================================================================================================
2019-09-07 00:07:09	service: /HosApp/dev/?/lastPrescription	data: {"hospitalNumber":"0400880","language":"th"}
======================================================================================================================================================
2019-09-07 00:07:10	service: /HosApp/dev/?/drugHistory	data: {"hospitalNumber":"0400880","language":"th","docNo":"","orderDate":"","periodFlag":"History"}
======================================================================================================================================================
2019-09-07 00:13:18	service: /HosApp/dev/?/token	data: {"grantType":"client_credentials","clientId":"a20034a1829a9c4b761aba9d9296cd5f","hospitalNumber":"0400880"}
======================================================================================================================================================
2019-09-07 00:13:18	service: /HosApp/dev/?/patientProfile	data: {"hospitalNumber":"0400880","language":"TH"}
======================================================================================================================================================
2019-09-07 00:13:19	service: /HosApp/dev/?/appointmentList	data: {"hospitalNumber":"0400880","language":"TH"}
======================================================================================================================================================
2019-09-07 00:13:23	service: /HosApp/dev/?/lastPrescription	data: {"hospitalNumber":"0400880","language":"th"}
======================================================================================================================================================
2019-09-07 00:13:24	service: /HosApp/dev/?/drugHistory	data: {"hospitalNumber":"0400880","language":"th","docNo":"","orderDate":"","periodFlag":"History"}
======================================================================================================================================================
2019-09-07 00:28:03	service: /HosApp/dev/?/token	data: {"grantType":"client_credentials","clientId":"a20034a1829a9c4b761aba9d9296cd5f","hospitalNumber":"0400880"}
======================================================================================================================================================
2019-09-07 00:28:03	service: /HosApp/dev/?/patientProfile	data: {"hospitalNumber":"0400880","language":"TH"}
======================================================================================================================================================
2019-09-07 00:28:04	service: /HosApp/dev/?/appointmentList	data: {"hospitalNumber":"0400880","language":"TH"}
======================================================================================================================================================
2019-09-07 00:28:07	service: /HosApp/dev/?/lastPrescription	data: {"hospitalNumber":"0400880","language":"th"}
======================================================================================================================================================
2019-09-07 00:28:08	service: /HosApp/dev/?/drugHistory	data: {"hospitalNumber":"0400880","language":"th","docNo":"","orderDate":"","periodFlag":"History"}
======================================================================================================================================================
2019-09-07 00:38:48	service: /HosApp/dev/?/appointmentList	data: {"hospitalNumber":"0400880","language":"TH"}
======================================================================================================================================================
2019-09-07 00:38:50	service: /HosApp/dev/?/appointmentList	data: {"hospitalNumber":"0400880","language":"TH"}
======================================================================================================================================================
2019-09-07 00:38:59	service: /HosApp/dev/?/appointmentDetail	data: {"hospitalNumber":"0400880","language":"TH","appointmentType":"OPD","appointmentId":"0400880|2019-10-01|OA5"}
======================================================================================================================================================
2019-09-07 00:39:00	service: /HosApp/dev/?/patientProfile	data: {"hospitalNumber":"0400880","language":"TH"}
======================================================================================================================================================
2019-09-07 00:39:04	service: /HosApp/dev/?/appointmentList	data: {"hospitalNumber":"0400880","language":"TH"}
======================================================================================================================================================
2019-09-07 00:39:05	service: /HosApp/dev/?/appointmentDetail	data: {"hospitalNumber":"0400880","language":"TH","appointmentType":"OPD","appointmentId":"0400880|2019-10-01|OA5"}
======================================================================================================================================================
2019-09-07 00:39:05	service: /HosApp/dev/?/patientProfile	data: {"hospitalNumber":"0400880","language":"TH"}
======================================================================================================================================================
2019-09-07 00:39:47	service: /HosApp/dev/?/appointmentList	data: {"hospitalNumber":"0400880","language":"TH"}
======================================================================================================================================================
2019-09-07 01:14:40	service: /HosApp/dev/?/token	data: {"grantType":"client_credentials","clientId":"a20034a1829a9c4b761aba9d9296cd5f","hospitalNumber":"0400880"}
======================================================================================================================================================
2019-09-07 01:14:40	service: /HosApp/dev/?/patientProfile	data: {"hospitalNumber":"0400880","language":"TH"}
======================================================================================================================================================
2019-09-07 01:14:41	service: /HosApp/dev/?/appointmentList	data: {"hospitalNumber":"0400880","language":"TH"}
======================================================================================================================================================
2019-09-07 01:14:44	service: /HosApp/dev/?/lastPrescription	data: {"hospitalNumber":"0400880","language":"th"}
======================================================================================================================================================
2019-09-07 01:14:44	service: /HosApp/dev/?/drugHistory	data: {"hospitalNumber":"0400880","language":"th","docNo":"","orderDate":"","periodFlag":"History"}
======================================================================================================================================================
2019-09-07 01:17:32	service: /HosApp/dev/?/token	data: {"grantType":"client_credentials","clientId":"a20034a1829a9c4b761aba9d9296cd5f","hospitalNumber":"0400880"}
======================================================================================================================================================
2019-09-07 01:17:33	service: /HosApp/dev/?/patientProfile	data: {"hospitalNumber":"0400880","language":"TH"}
======================================================================================================================================================
2019-09-07 01:17:33	service: /HosApp/dev/?/appointmentList	data: {"hospitalNumber":"0400880","language":"TH"}
======================================================================================================================================================
2019-09-07 01:17:37	service: /HosApp/dev/?/lastPrescription	data: {"hospitalNumber":"0400880","language":"th"}
======================================================================================================================================================
2019-09-07 01:17:37	service: /HosApp/dev/?/drugHistory	data: {"hospitalNumber":"0400880","language":"th","docNo":"","orderDate":"","periodFlag":"History"}
======================================================================================================================================================
2019-09-07 01:19:21	service: /HosApp/dev/?/token	data: {"grantType":"client_credentials","clientId":"a20034a1829a9c4b761aba9d9296cd5f","hospitalNumber":"0400880"}
======================================================================================================================================================
2019-09-07 01:19:22	service: /HosApp/dev/?/patientProfile	data: {"hospitalNumber":"0400880","language":"TH"}
======================================================================================================================================================
2019-09-07 01:19:22	service: /HosApp/dev/?/appointmentList	data: {"hospitalNumber":"0400880","language":"TH"}
======================================================================================================================================================
2019-09-07 01:19:27	service: /HosApp/dev/?/lastPrescription	data: {"hospitalNumber":"0400880","language":"th"}
======================================================================================================================================================
2019-09-07 01:19:28	service: /HosApp/dev/?/drugHistory	data: {"hospitalNumber":"0400880","language":"th","docNo":"","orderDate":"","periodFlag":"History"}
======================================================================================================================================================
2019-09-07 01:38:11	service: /HosApp/dev/?/token	data: {"grantType":"client_credentials","clientId":"a20034a1829a9c4b761aba9d9296cd5f","hospitalNumber":"0400880"}
======================================================================================================================================================
2019-09-07 01:38:12	service: /HosApp/dev/?/patientProfile	data: {"hospitalNumber":"0400880","language":"TH"}
======================================================================================================================================================
2019-09-07 01:38:12	service: /HosApp/dev/?/appointmentList	data: {"hospitalNumber":"0400880","language":"TH"}
======================================================================================================================================================
2019-09-07 01:38:15	service: /HosApp/dev/?/lastPrescription	data: {"hospitalNumber":"0400880","language":"th"}
======================================================================================================================================================
2019-09-07 01:38:16	service: /HosApp/dev/?/drugHistory	data: {"hospitalNumber":"0400880","language":"th","docNo":"","orderDate":"","periodFlag":"History"}
======================================================================================================================================================
2019-09-07 01:40:36	service: /HosApp/dev/?/token	data: {"grantType":"client_credentials","clientId":"a20034a1829a9c4b761aba9d9296cd5f","hospitalNumber":"0400880"}
======================================================================================================================================================
2019-09-07 01:40:36	service: /HosApp/dev/?/patientProfile	data: {"hospitalNumber":"0400880","language":"TH"}
======================================================================================================================================================
2019-09-07 01:40:37	service: /HosApp/dev/?/appointmentList	data: {"hospitalNumber":"0400880","language":"TH"}
======================================================================================================================================================
2019-09-07 01:40:41	service: /HosApp/dev/?/lastPrescription	data: {"hospitalNumber":"0400880","language":"th"}
======================================================================================================================================================
2019-09-07 01:40:41	service: /HosApp/dev/?/drugHistory	data: {"hospitalNumber":"0400880","language":"th","docNo":"","orderDate":"","periodFlag":"History"}
======================================================================================================================================================
2019-09-07 01:42:43	service: /HosApp/dev/?/token	data: {"grantType":"client_credentials","clientId":"a20034a1829a9c4b761aba9d9296cd5f","hospitalNumber":"0400880"}
======================================================================================================================================================
2019-09-07 01:42:44	service: /HosApp/dev/?/patientProfile	data: {"hospitalNumber":"0400880","language":"TH"}
======================================================================================================================================================
2019-09-07 01:42:44	service: /HosApp/dev/?/appointmentList	data: {"hospitalNumber":"0400880","language":"TH"}
======================================================================================================================================================
2019-09-07 01:42:48	service: /HosApp/dev/?/lastPrescription	data: {"hospitalNumber":"0400880","language":"th"}
======================================================================================================================================================
2019-09-07 01:42:48	service: /HosApp/dev/?/drugHistory	data: {"hospitalNumber":"0400880","language":"th","docNo":"","orderDate":"","periodFlag":"History"}
======================================================================================================================================================
2019-09-07 01:57:18	service: /HosApp/dev/?/token	data: {"grantType":"client_credentials","clientId":"a20034a1829a9c4b761aba9d9296cd5f","hospitalNumber":"0400880"}
======================================================================================================================================================
2019-09-07 01:57:18	service: /HosApp/dev/?/patientProfile	data: {"hospitalNumber":"0400880","language":"TH"}
======================================================================================================================================================
2019-09-07 01:57:19	service: /HosApp/dev/?/appointmentList	data: {"hospitalNumber":"0400880","language":"TH"}
======================================================================================================================================================
2019-09-07 01:57:23	service: /HosApp/dev/?/lastPrescription	data: {"hospitalNumber":"0400880","language":"th"}
======================================================================================================================================================
2019-09-07 01:57:23	service: /HosApp/dev/?/drugHistory	data: {"hospitalNumber":"0400880","language":"th","docNo":"","orderDate":"","periodFlag":"History"}
======================================================================================================================================================
2019-09-07 01:59:43	service: /HosApp/dev/?/token	data: {"grantType":"client_credentials","clientId":"a20034a1829a9c4b761aba9d9296cd5f","hospitalNumber":"0400880"}
======================================================================================================================================================
2019-09-07 01:59:43	service: /HosApp/dev/?/patientProfile	data: {"hospitalNumber":"0400880","language":"TH"}
======================================================================================================================================================
2019-09-07 01:59:44	service: /HosApp/dev/?/appointmentList	data: {"hospitalNumber":"0400880","language":"TH"}
======================================================================================================================================================
2019-09-07 01:59:48	service: /HosApp/dev/?/lastPrescription	data: {"hospitalNumber":"0400880","language":"th"}
======================================================================================================================================================
2019-09-07 01:59:48	service: /HosApp/dev/?/drugHistory	data: {"hospitalNumber":"0400880","language":"th","docNo":"","orderDate":"","periodFlag":"History"}
======================================================================================================================================================
2019-09-07 02:03:10	service: /HosApp/dev/?/token	data: {"grantType":"client_credentials","clientId":"a20034a1829a9c4b761aba9d9296cd5f","hospitalNumber":"0400880"}
======================================================================================================================================================
2019-09-07 02:03:11	service: /HosApp/dev/?/patientProfile	data: {"hospitalNumber":"0400880","language":"TH"}
======================================================================================================================================================
2019-09-07 02:03:11	service: /HosApp/dev/?/appointmentList	data: {"hospitalNumber":"0400880","language":"TH"}
======================================================================================================================================================
2019-09-07 02:03:16	service: /HosApp/dev/?/lastPrescription	data: {"hospitalNumber":"0400880","language":"th"}
======================================================================================================================================================
2019-09-07 02:03:16	service: /HosApp/dev/?/drugHistory	data: {"hospitalNumber":"0400880","language":"th","docNo":"","orderDate":"","periodFlag":"History"}
======================================================================================================================================================
2019-09-07 02:04:31	service: /HosApp/dev/?/token	data: {"grantType":"client_credentials","clientId":"a20034a1829a9c4b761aba9d9296cd5f","hospitalNumber":"0400880"}
======================================================================================================================================================
2019-09-07 02:04:31	service: /HosApp/dev/?/patientProfile	data: {"hospitalNumber":"0400880","language":"TH"}
======================================================================================================================================================
2019-09-07 02:04:32	service: /HosApp/dev/?/appointmentList	data: {"hospitalNumber":"0400880","language":"TH"}
======================================================================================================================================================
2019-09-07 02:04:36	service: /HosApp/dev/?/lastPrescription	data: {"hospitalNumber":"0400880","language":"th"}
======================================================================================================================================================
2019-09-07 02:04:37	service: /HosApp/dev/?/drugHistory	data: {"hospitalNumber":"0400880","language":"th","docNo":"","orderDate":"","periodFlag":"History"}
======================================================================================================================================================
2019-09-07 02:05:48	service: /HosApp/dev/?/token	data: {"grantType":"client_credentials","clientId":"a20034a1829a9c4b761aba9d9296cd5f","hospitalNumber":"0400880"}
======================================================================================================================================================
2019-09-07 02:05:49	service: /HosApp/dev/?/patientProfile	data: {"hospitalNumber":"0400880","language":"TH"}
======================================================================================================================================================
2019-09-07 02:05:49	service: /HosApp/dev/?/appointmentList	data: {"hospitalNumber":"0400880","language":"TH"}
======================================================================================================================================================
2019-09-07 02:05:52	service: /HosApp/dev/?/lastPrescription	data: {"hospitalNumber":"0400880","language":"th"}
======================================================================================================================================================
2019-09-07 02:05:53	service: /HosApp/dev/?/drugHistory	data: {"hospitalNumber":"0400880","language":"th","docNo":"","orderDate":"","periodFlag":"History"}
======================================================================================================================================================
2019-09-07 02:06:44	service: /HosApp/dev/?/token	data: {"grantType":"client_credentials","clientId":"a20034a1829a9c4b761aba9d9296cd5f","hospitalNumber":"0400880"}
======================================================================================================================================================
2019-09-07 02:06:44	service: /HosApp/dev/?/patientProfile	data: {"hospitalNumber":"0400880","language":"TH"}
======================================================================================================================================================
2019-09-07 02:06:45	service: /HosApp/dev/?/appointmentList	data: {"hospitalNumber":"0400880","language":"TH"}
======================================================================================================================================================
2019-09-07 02:06:48	service: /HosApp/dev/?/lastPrescription	data: {"hospitalNumber":"0400880","language":"th"}
======================================================================================================================================================
2019-09-07 02:06:48	service: /HosApp/dev/?/drugHistory	data: {"hospitalNumber":"0400880","language":"th","docNo":"","orderDate":"","periodFlag":"History"}
======================================================================================================================================================
2019-09-07 02:25:37	service: /HosApp/dev/?/token	data: {"grantType":"client_credentials","clientId":"a20034a1829a9c4b761aba9d9296cd5f","hospitalNumber":"0400880"}
======================================================================================================================================================
2019-09-07 02:25:37	service: /HosApp/dev/?/patientProfile	data: {"hospitalNumber":"0400880","language":"TH"}
======================================================================================================================================================
2019-09-07 02:25:38	service: /HosApp/dev/?/appointmentList	data: {"hospitalNumber":"0400880","language":"TH"}
======================================================================================================================================================
2019-09-07 02:25:41	service: /HosApp/dev/?/lastPrescription	data: {"hospitalNumber":"0400880","language":"th"}
======================================================================================================================================================
2019-09-07 02:25:41	service: /HosApp/dev/?/drugHistory	data: {"hospitalNumber":"0400880","language":"th","docNo":"","orderDate":"","periodFlag":"History"}
======================================================================================================================================================
2019-09-07 02:27:08	service: /HosApp/dev/?/token	data: {"grantType":"client_credentials","clientId":"a20034a1829a9c4b761aba9d9296cd5f","hospitalNumber":"0400880"}
======================================================================================================================================================
2019-09-07 02:27:08	service: /HosApp/dev/?/patientProfile	data: {"hospitalNumber":"0400880","language":"TH"}
======================================================================================================================================================
2019-09-07 02:27:09	service: /HosApp/dev/?/appointmentList	data: {"hospitalNumber":"0400880","language":"TH"}
======================================================================================================================================================
2019-09-07 02:27:13	service: /HosApp/dev/?/lastPrescription	data: {"hospitalNumber":"0400880","language":"th"}
======================================================================================================================================================
2019-09-07 02:27:14	service: /HosApp/dev/?/drugHistory	data: {"hospitalNumber":"0400880","language":"th","docNo":"","orderDate":"","periodFlag":"History"}
======================================================================================================================================================
2019-09-07 02:29:49	service: /HosApp/dev/?/token	data: {"grantType":"client_credentials","clientId":"a20034a1829a9c4b761aba9d9296cd5f","hospitalNumber":"0400880"}
======================================================================================================================================================
2019-09-07 02:29:50	service: /HosApp/dev/?/patientProfile	data: {"hospitalNumber":"0400880","language":"TH"}
======================================================================================================================================================
2019-09-07 02:29:50	service: /HosApp/dev/?/appointmentList	data: {"hospitalNumber":"0400880","language":"TH"}
======================================================================================================================================================
2019-09-07 02:29:56	service: /HosApp/dev/?/lastPrescription	data: {"hospitalNumber":"0400880","language":"th"}
======================================================================================================================================================
2019-09-07 02:29:56	service: /HosApp/dev/?/drugHistory	data: {"hospitalNumber":"0400880","language":"th","docNo":"","orderDate":"","periodFlag":"History"}
======================================================================================================================================================
2019-09-07 02:31:25	service: /HosApp/dev/?/token	data: {"grantType":"client_credentials","clientId":"a20034a1829a9c4b761aba9d9296cd5f","hospitalNumber":"0400880"}
======================================================================================================================================================
2019-09-07 02:31:25	service: /HosApp/dev/?/patientProfile	data: {"hospitalNumber":"0400880","language":"TH"}
======================================================================================================================================================
2019-09-07 02:31:26	service: /HosApp/dev/?/appointmentList	data: {"hospitalNumber":"0400880","language":"TH"}
======================================================================================================================================================
2019-09-07 02:31:29	service: /HosApp/dev/?/lastPrescription	data: {"hospitalNumber":"0400880","language":"th"}
======================================================================================================================================================
2019-09-07 02:31:29	service: /HosApp/dev/?/drugHistory	data: {"hospitalNumber":"0400880","language":"th","docNo":"","orderDate":"","periodFlag":"History"}
======================================================================================================================================================
2019-09-07 02:40:08	service: /HosApp/dev/?/token	data: {"grantType":"client_credentials","clientId":"a20034a1829a9c4b761aba9d9296cd5f","hospitalNumber":"0400880"}
======================================================================================================================================================
2019-09-07 02:40:09	service: /HosApp/dev/?/patientProfile	data: {"hospitalNumber":"0400880","language":"TH"}
======================================================================================================================================================
2019-09-07 02:40:09	service: /HosApp/dev/?/appointmentList	data: {"hospitalNumber":"0400880","language":"TH"}
======================================================================================================================================================
2019-09-07 02:40:12	service: /HosApp/dev/?/lastPrescription	data: {"hospitalNumber":"0400880","language":"th"}
======================================================================================================================================================
2019-09-07 02:40:13	service: /HosApp/dev/?/drugHistory	data: {"hospitalNumber":"0400880","language":"th","docNo":"","orderDate":"","periodFlag":"History"}
======================================================================================================================================================
2019-09-07 12:28:42	service: /HosApp/dev/?/token	data: {"grantType":"client_credentials","clientId":"a20034a1829a9c4b761aba9d9296cd5f","hospitalNumber":"0400880"}
======================================================================================================================================================
2019-09-07 12:28:42	service: /HosApp/dev/?/patientProfile	data: {"hospitalNumber":"0400880","language":"TH"}
======================================================================================================================================================
2019-09-07 12:28:43	service: /HosApp/dev/?/appointmentList	data: {"hospitalNumber":"0400880","language":"TH"}
======================================================================================================================================================
2019-09-07 12:28:46	service: /HosApp/dev/?/lastPrescription	data: {"hospitalNumber":"0400880","language":"th"}
======================================================================================================================================================
2019-09-07 12:28:47	service: /HosApp/dev/?/drugHistory	data: {"hospitalNumber":"0400880","language":"th","docNo":"","orderDate":"","periodFlag":"History"}
======================================================================================================================================================
2019-09-07 12:32:15	service: /HosApp/dev/?/token	data: {"grantType":"client_credentials","clientId":"a20034a1829a9c4b761aba9d9296cd5f","hospitalNumber":"0400880"}
======================================================================================================================================================
2019-09-07 12:32:15	service: /HosApp/dev/?/patientProfile	data: {"hospitalNumber":"0400880","language":"TH"}
======================================================================================================================================================
2019-09-07 12:32:16	service: /HosApp/dev/?/appointmentList	data: {"hospitalNumber":"0400880","language":"TH"}
======================================================================================================================================================
2019-09-07 12:32:19	service: /HosApp/dev/?/lastPrescription	data: {"hospitalNumber":"0400880","language":"th"}
======================================================================================================================================================
2019-09-07 12:32:19	service: /HosApp/dev/?/drugHistory	data: {"hospitalNumber":"0400880","language":"th","docNo":"","orderDate":"","periodFlag":"History"}
======================================================================================================================================================
2019-09-07 13:04:10	service: /HosApp/dev/?/token	data: {"grantType":"client_credentials","clientId":"a20034a1829a9c4b761aba9d9296cd5f","hospitalNumber":"0400880"}
======================================================================================================================================================
2019-09-07 13:04:10	service: /HosApp/dev/?/patientProfile	data: {"hospitalNumber":"0400880","language":"TH"}
======================================================================================================================================================
2019-09-07 13:04:11	service: /HosApp/dev/?/appointmentList	data: {"hospitalNumber":"0400880","language":"TH"}
======================================================================================================================================================
2019-09-07 13:04:14	service: /HosApp/dev/?/lastPrescription	data: {"hospitalNumber":"0400880","language":"th"}
======================================================================================================================================================
2019-09-07 13:04:15	service: /HosApp/dev/?/drugHistory	data: {"hospitalNumber":"0400880","language":"th","docNo":"","orderDate":"","periodFlag":"History"}
======================================================================================================================================================
2019-09-07 14:20:57	service: /HosApp/dev/?/token	data: {"grantType":"client_credentials","clientId":"a20034a1829a9c4b761aba9d9296cd5f","hospitalNumber":"0400880"}
======================================================================================================================================================
2019-09-07 14:20:57	service: /HosApp/dev/?/patientProfile	data: {"hospitalNumber":"0400880","language":"TH"}
======================================================================================================================================================
2019-09-07 14:20:58	service: /HosApp/dev/?/appointmentList	data: {"hospitalNumber":"0400880","language":"TH"}
======================================================================================================================================================
2019-09-07 14:21:03	service: /HosApp/dev/?/lastPrescription	data: {"hospitalNumber":"0400880","language":"th"}
======================================================================================================================================================
2019-09-07 14:21:04	service: /HosApp/dev/?/drugHistory	data: {"hospitalNumber":"0400880","language":"th","docNo":"","orderDate":"","periodFlag":"History"}
======================================================================================================================================================
2019-09-07 14:23:35	service: /HosApp/dev/?/lastPrescription	data: {"hospitalNumber":"0400880","language":"th"}
======================================================================================================================================================
2019-09-07 14:23:35	service: /HosApp/dev/?/drugHistory	data: {"hospitalNumber":"0400880","language":"th","docNo":"","orderDate":"","periodFlag":"History"}
======================================================================================================================================================
2019-09-07 14:36:42	service: /HosApp/dev/?/token	data: {"grantType":"client_credentials","clientId":"a20034a1829a9c4b761aba9d9296cd5f","hospitalNumber":"0400880"}
======================================================================================================================================================
2019-09-07 14:36:43	service: /HosApp/dev/?/patientProfile	data: {"hospitalNumber":"0400880","language":"TH"}
======================================================================================================================================================
2019-09-07 14:36:43	service: /HosApp/dev/?/appointmentList	data: {"hospitalNumber":"0400880","language":"TH"}
======================================================================================================================================================
2019-09-07 14:36:46	service: /HosApp/dev/?/lastPrescription	data: {"hospitalNumber":"0400880","language":"th"}
======================================================================================================================================================
2019-09-07 14:36:47	service: /HosApp/dev/?/drugHistory	data: {"hospitalNumber":"0400880","language":"th","docNo":"","orderDate":"","periodFlag":"History"}
======================================================================================================================================================
2019-09-07 14:37:49	service: /HosApp/dev/?/token	data: {"grantType":"client_credentials","clientId":"a20034a1829a9c4b761aba9d9296cd5f","hospitalNumber":"0400880"}
======================================================================================================================================================
2019-09-07 14:37:49	service: /HosApp/dev/?/patientProfile	data: {"hospitalNumber":"0400880","language":"TH"}
======================================================================================================================================================
2019-09-07 14:37:50	service: /HosApp/dev/?/appointmentList	data: {"hospitalNumber":"0400880","language":"TH"}
======================================================================================================================================================
2019-09-07 14:37:53	service: /HosApp/dev/?/lastPrescription	data: {"hospitalNumber":"0400880","language":"th"}
======================================================================================================================================================
2019-09-07 14:37:53	service: /HosApp/dev/?/drugHistory	data: {"hospitalNumber":"0400880","language":"th","docNo":"","orderDate":"","periodFlag":"History"}
======================================================================================================================================================
2019-09-07 14:53:25	service: /HosApp/dev/?/token	data: {"grantType":"client_credentials","clientId":"a20034a1829a9c4b761aba9d9296cd5f","hospitalNumber":"0400880"}
======================================================================================================================================================
2019-09-07 14:53:25	service: /HosApp/dev/?/patientProfile	data: {"hospitalNumber":"0400880","language":"TH"}
======================================================================================================================================================
2019-09-07 14:53:26	service: /HosApp/dev/?/appointmentList	data: {"hospitalNumber":"0400880","language":"TH"}
======================================================================================================================================================
2019-09-07 14:53:29	service: /HosApp/dev/?/lastPrescription	data: {"hospitalNumber":"0400880","language":"th"}
======================================================================================================================================================
2019-09-07 14:53:29	service: /HosApp/dev/?/drugHistory	data: {"hospitalNumber":"0400880","language":"th","docNo":"","orderDate":"","periodFlag":"History"}
======================================================================================================================================================
2019-09-07 15:07:23	service: /HosApp/dev/?/token	data: {"grantType":"client_credentials","clientId":"a20034a1829a9c4b761aba9d9296cd5f","hospitalNumber":"0400880"}
======================================================================================================================================================
2019-09-07 15:07:24	service: /HosApp/dev/?/patientProfile	data: {"hospitalNumber":"0400880","language":"TH"}
======================================================================================================================================================
2019-09-07 15:07:24	service: /HosApp/dev/?/appointmentList	data: {"hospitalNumber":"0400880","language":"TH"}
======================================================================================================================================================
2019-09-07 15:07:27	service: /HosApp/dev/?/lastPrescription	data: {"hospitalNumber":"0400880","language":"th"}
======================================================================================================================================================
2019-09-07 15:07:27	service: /HosApp/dev/?/drugHistory	data: {"hospitalNumber":"0400880","language":"th","docNo":"","orderDate":"","periodFlag":"History"}
======================================================================================================================================================
2019-09-07 15:09:07	service: /HosApp/dev/?/token	data: {"grantType":"client_credentials","clientId":"a20034a1829a9c4b761aba9d9296cd5f","hospitalNumber":"0400880"}
======================================================================================================================================================
2019-09-07 15:09:07	service: /HosApp/dev/?/patientProfile	data: {"hospitalNumber":"0400880","language":"TH"}
======================================================================================================================================================
2019-09-07 15:09:08	service: /HosApp/dev/?/appointmentList	data: {"hospitalNumber":"0400880","language":"TH"}
======================================================================================================================================================
2019-09-07 15:09:12	service: /HosApp/dev/?/lastPrescription	data: {"hospitalNumber":"0400880","language":"th"}
======================================================================================================================================================
2019-09-07 15:09:12	service: /HosApp/dev/?/drugHistory	data: {"hospitalNumber":"0400880","language":"th","docNo":"","orderDate":"","periodFlag":"History"}
======================================================================================================================================================
2019-09-07 15:11:02	service: /HosApp/dev/?/token	data: {"grantType":"client_credentials","clientId":"a20034a1829a9c4b761aba9d9296cd5f","hospitalNumber":"0400880"}
======================================================================================================================================================
2019-09-07 15:11:03	service: /HosApp/dev/?/patientProfile	data: {"hospitalNumber":"0400880","language":"TH"}
======================================================================================================================================================
2019-09-07 15:11:03	service: /HosApp/dev/?/appointmentList	data: {"hospitalNumber":"0400880","language":"TH"}
======================================================================================================================================================
2019-09-07 15:11:06	service: /HosApp/dev/?/lastPrescription	data: {"hospitalNumber":"0400880","language":"th"}
======================================================================================================================================================
2019-09-07 15:11:07	service: /HosApp/dev/?/drugHistory	data: {"hospitalNumber":"0400880","language":"th","docNo":"","orderDate":"","periodFlag":"History"}
======================================================================================================================================================
2019-09-07 15:12:21	service: /HosApp/dev/?/token	data: {"grantType":"client_credentials","clientId":"a20034a1829a9c4b761aba9d9296cd5f","hospitalNumber":"0400880"}
======================================================================================================================================================
2019-09-07 15:12:22	service: /HosApp/dev/?/patientProfile	data: {"hospitalNumber":"0400880","language":"TH"}
======================================================================================================================================================
2019-09-07 15:12:22	service: /HosApp/dev/?/appointmentList	data: {"hospitalNumber":"0400880","language":"TH"}
======================================================================================================================================================
2019-09-07 15:12:27	service: /HosApp/dev/?/lastPrescription	data: {"hospitalNumber":"0400880","language":"th"}
======================================================================================================================================================
2019-09-07 15:12:28	service: /HosApp/dev/?/drugHistory	data: {"hospitalNumber":"0400880","language":"th","docNo":"","orderDate":"","periodFlag":"History"}
======================================================================================================================================================
2019-09-07 15:15:23	service: /HosApp/dev/?/token	data: {"grantType":"client_credentials","clientId":"a20034a1829a9c4b761aba9d9296cd5f","hospitalNumber":"0400880"}
======================================================================================================================================================
2019-09-07 15:15:23	service: /HosApp/dev/?/patientProfile	data: {"hospitalNumber":"0400880","language":"TH"}
======================================================================================================================================================
2019-09-07 15:15:24	service: /HosApp/dev/?/appointmentList	data: {"hospitalNumber":"0400880","language":"TH"}
======================================================================================================================================================
2019-09-07 15:15:27	service: /HosApp/dev/?/lastPrescription	data: {"hospitalNumber":"0400880","language":"th"}
======================================================================================================================================================
2019-09-07 15:15:28	service: /HosApp/dev/?/drugHistory	data: {"hospitalNumber":"0400880","language":"th","docNo":"","orderDate":"","periodFlag":"History"}
======================================================================================================================================================
2019-09-07 15:21:15	service: /HosApp/dev/?/token	data: {"grantType":"client_credentials","clientId":"a20034a1829a9c4b761aba9d9296cd5f","hospitalNumber":"0400880"}
======================================================================================================================================================
2019-09-07 15:21:15	service: /HosApp/dev/?/patientProfile	data: {"hospitalNumber":"0400880","language":"TH"}
======================================================================================================================================================
2019-09-07 15:21:16	service: /HosApp/dev/?/appointmentList	data: {"hospitalNumber":"0400880","language":"TH"}
======================================================================================================================================================
2019-09-07 15:21:19	service: /HosApp/dev/?/lastPrescription	data: {"hospitalNumber":"0400880","language":"th"}
======================================================================================================================================================
2019-09-07 15:21:19	service: /HosApp/dev/?/drugHistory	data: {"hospitalNumber":"0400880","language":"th","docNo":"","orderDate":"","periodFlag":"History"}
======================================================================================================================================================
2019-09-07 15:24:07	service: /HosApp/dev/?/token	data: {"grantType":"client_credentials","clientId":"a20034a1829a9c4b761aba9d9296cd5f","hospitalNumber":"0400880"}
======================================================================================================================================================
2019-09-07 15:24:07	service: /HosApp/dev/?/patientProfile	data: {"hospitalNumber":"0400880","language":"TH"}
======================================================================================================================================================
2019-09-07 15:24:08	service: /HosApp/dev/?/appointmentList	data: {"hospitalNumber":"0400880","language":"TH"}
======================================================================================================================================================
2019-09-07 15:24:11	service: /HosApp/dev/?/lastPrescription	data: {"hospitalNumber":"0400880","language":"th"}
======================================================================================================================================================
2019-09-07 15:24:12	service: /HosApp/dev/?/drugHistory	data: {"hospitalNumber":"0400880","language":"th","docNo":"","orderDate":"","periodFlag":"History"}
======================================================================================================================================================
2019-09-07 15:32:46	service: /HosApp/dev/?/token	data: {"grantType":"client_credentials","clientId":"a20034a1829a9c4b761aba9d9296cd5f","hospitalNumber":"0400880"}
======================================================================================================================================================
2019-09-07 15:32:46	service: /HosApp/dev/?/patientProfile	data: {"hospitalNumber":"0400880","language":"TH"}
======================================================================================================================================================
2019-09-07 15:32:47	service: /HosApp/dev/?/appointmentList	data: {"hospitalNumber":"0400880","language":"TH"}
======================================================================================================================================================
2019-09-07 15:32:50	service: /HosApp/dev/?/lastPrescription	data: {"hospitalNumber":"0400880","language":"th"}
======================================================================================================================================================
2019-09-07 15:32:51	service: /HosApp/dev/?/drugHistory	data: {"hospitalNumber":"0400880","language":"th","docNo":"","orderDate":"","periodFlag":"History"}
======================================================================================================================================================
2019-09-07 15:35:10	service: /HosApp/dev/?/token	data: {"grantType":"client_credentials","clientId":"a20034a1829a9c4b761aba9d9296cd5f","hospitalNumber":"0400880"}
======================================================================================================================================================
2019-09-07 15:35:11	service: /HosApp/dev/?/patientProfile	data: {"hospitalNumber":"0400880","language":"TH"}
======================================================================================================================================================
2019-09-07 15:35:11	service: /HosApp/dev/?/appointmentList	data: {"hospitalNumber":"0400880","language":"TH"}
======================================================================================================================================================
2019-09-07 15:35:15	service: /HosApp/dev/?/lastPrescription	data: {"hospitalNumber":"0400880","language":"th"}
======================================================================================================================================================
2019-09-07 15:35:15	service: /HosApp/dev/?/drugHistory	data: {"hospitalNumber":"0400880","language":"th","docNo":"","orderDate":"","periodFlag":"History"}
======================================================================================================================================================
2019-09-07 15:47:10	service: /HosApp/dev/?/token	data: {"grantType":"client_credentials","clientId":"a20034a1829a9c4b761aba9d9296cd5f","hospitalNumber":"0400880"}
======================================================================================================================================================
2019-09-07 15:47:10	service: /HosApp/dev/?/patientProfile	data: {"hospitalNumber":"0400880","language":"TH"}
======================================================================================================================================================
2019-09-07 15:47:10	service: /HosApp/dev/?/appointmentList	data: {"hospitalNumber":"0400880","language":"TH"}
======================================================================================================================================================
2019-09-07 15:47:13	service: /HosApp/dev/?/lastPrescription	data: {"hospitalNumber":"0400880","language":"th"}
======================================================================================================================================================
2019-09-07 15:47:14	service: /HosApp/dev/?/drugHistory	data: {"hospitalNumber":"0400880","language":"th","docNo":"","orderDate":"","periodFlag":"History"}
======================================================================================================================================================
2019-09-07 15:59:20	service: /HosApp/dev/?/lastPrescription	data: {"hospitalNumber":"0400880","language":"th"}
======================================================================================================================================================
2019-09-07 15:59:21	service: /HosApp/dev/?/drugHistory	data: {"hospitalNumber":"0400880","language":"th","docNo":"","orderDate":"","periodFlag":"History"}
======================================================================================================================================================
2019-09-07 18:30:21	service: /HosApp/dev/?/lastPrescription	data: {"hospitalNumber":"0400880","language":"th"}
======================================================================================================================================================
2019-09-07 18:30:22	service: /HosApp/dev/?/drugHistory	data: {"hospitalNumber":"0400880","language":"th","docNo":"","orderDate":"","periodFlag":"History"}
======================================================================================================================================================
2019-09-07 18:46:54	service: /HosApp/dev/?/token	data: {"grantType":"client_credentials","clientId":"a20034a1829a9c4b761aba9d9296cd5f","hospitalNumber":"0400880"}
======================================================================================================================================================
2019-09-07 18:46:55	service: /HosApp/dev/?/patientProfile	data: {"hospitalNumber":"0400880","language":"TH"}
======================================================================================================================================================
2019-09-07 18:46:55	service: /HosApp/dev/?/appointmentList	data: {"hospitalNumber":"0400880","language":"TH"}
======================================================================================================================================================
2019-09-07 18:47:01	service: /HosApp/dev/?/lastPrescription	data: {"hospitalNumber":"0400880","language":"th"}
======================================================================================================================================================
2019-09-07 18:47:01	service: /HosApp/dev/?/drugHistory	data: {"hospitalNumber":"0400880","language":"th","docNo":"","orderDate":"","periodFlag":"History"}
======================================================================================================================================================
2019-09-07 19:04:38	service: /HosApp/dev/?/token	data: {"grantType":"client_credentials","clientId":"a20034a1829a9c4b761aba9d9296cd5f","hospitalNumber":"0400880"}
======================================================================================================================================================
2019-09-07 19:04:38	service: /HosApp/dev/?/patientProfile	data: {"hospitalNumber":"0400880","language":"TH"}
======================================================================================================================================================
2019-09-07 19:04:39	service: /HosApp/dev/?/appointmentList	data: {"hospitalNumber":"0400880","language":"TH"}
======================================================================================================================================================
2019-09-07 19:04:42	service: /HosApp/dev/?/lastPrescription	data: {"hospitalNumber":"0400880","language":"th"}
======================================================================================================================================================
2019-09-07 19:04:42	service: /HosApp/dev/?/drugHistory	data: {"hospitalNumber":"0400880","language":"th","docNo":"","orderDate":"","periodFlag":"History"}
======================================================================================================================================================
2019-09-07 19:05:16	service: /HosApp/dev/?/lastPrescription	data: {"hospitalNumber":"0400880","language":"th"}
======================================================================================================================================================
2019-09-07 19:05:16	service: /HosApp/dev/?/drugHistory	data: {"hospitalNumber":"0400880","language":"th","docNo":"","orderDate":"","periodFlag":"History"}
======================================================================================================================================================
2019-09-07 19:09:48	service: /HosApp/dev/?/token	data: {"grantType":"client_credentials","clientId":"a20034a1829a9c4b761aba9d9296cd5f","hospitalNumber":"0400880"}
======================================================================================================================================================
2019-09-07 19:09:49	service: /HosApp/dev/?/patientProfile	data: {"hospitalNumber":"0400880","language":"TH"}
======================================================================================================================================================
2019-09-07 19:09:49	service: /HosApp/dev/?/appointmentList	data: {"hospitalNumber":"0400880","language":"TH"}
======================================================================================================================================================
2019-09-07 19:09:53	service: /HosApp/dev/?/lastPrescription	data: {"hospitalNumber":"0400880","language":"th"}
======================================================================================================================================================
2019-09-07 19:09:53	service: /HosApp/dev/?/drugHistory	data: {"hospitalNumber":"0400880","language":"th","docNo":"","orderDate":"","periodFlag":"History"}
======================================================================================================================================================
2019-09-07 19:11:09	service: /HosApp/dev/?/token	data: {"grantType":"client_credentials","clientId":"a20034a1829a9c4b761aba9d9296cd5f","hospitalNumber":"0400880"}
======================================================================================================================================================
2019-09-07 19:11:09	service: /HosApp/dev/?/patientProfile	data: {"hospitalNumber":"0400880","language":"TH"}
======================================================================================================================================================
2019-09-07 19:11:10	service: /HosApp/dev/?/appointmentList	data: {"hospitalNumber":"0400880","language":"TH"}
======================================================================================================================================================
2019-09-07 19:11:13	service: /HosApp/dev/?/lastPrescription	data: {"hospitalNumber":"0400880","language":"th"}
======================================================================================================================================================
2019-09-07 19:11:14	service: /HosApp/dev/?/drugHistory	data: {"hospitalNumber":"0400880","language":"th","docNo":"","orderDate":"","periodFlag":"History"}
======================================================================================================================================================
2019-09-07 19:19:47	service: /HosApp/dev/?/token	data: {"grantType":"client_credentials","clientId":"a20034a1829a9c4b761aba9d9296cd5f","hospitalNumber":"0400880"}
======================================================================================================================================================
2019-09-07 19:19:48	service: /HosApp/dev/?/patientProfile	data: {"hospitalNumber":"0400880","language":"TH"}
======================================================================================================================================================
2019-09-07 19:19:48	service: /HosApp/dev/?/appointmentList	data: {"hospitalNumber":"0400880","language":"TH"}
======================================================================================================================================================
2019-09-07 19:19:52	service: /HosApp/dev/?/lastPrescription	data: {"hospitalNumber":"0400880","language":"th"}
======================================================================================================================================================
2019-09-07 19:19:53	service: /HosApp/dev/?/drugHistory	data: {"hospitalNumber":"0400880","language":"th","docNo":"","orderDate":"","periodFlag":"History"}
======================================================================================================================================================
2019-09-07 19:25:47	service: /HosApp/dev/?/token	data: {"grantType":"client_credentials","clientId":"a20034a1829a9c4b761aba9d9296cd5f","hospitalNumber":"0400880"}
======================================================================================================================================================
2019-09-07 19:25:47	service: /HosApp/dev/?/patientProfile	data: {"hospitalNumber":"0400880","language":"TH"}
======================================================================================================================================================
2019-09-07 19:25:48	service: /HosApp/dev/?/appointmentList	data: {"hospitalNumber":"0400880","language":"TH"}
======================================================================================================================================================
2019-09-07 19:25:51	service: /HosApp/dev/?/lastPrescription	data: {"hospitalNumber":"0400880","language":"th"}
======================================================================================================================================================
2019-09-07 19:25:52	service: /HosApp/dev/?/drugHistory	data: {"hospitalNumber":"0400880","language":"th","docNo":"","orderDate":"","periodFlag":"History"}
======================================================================================================================================================
2019-09-07 19:27:43	service: /HosApp/dev/?/token	data: {"grantType":"client_credentials","clientId":"a20034a1829a9c4b761aba9d9296cd5f","hospitalNumber":"0400880"}
======================================================================================================================================================
2019-09-07 19:27:43	service: /HosApp/dev/?/patientProfile	data: {"hospitalNumber":"0400880","language":"TH"}
======================================================================================================================================================
2019-09-07 19:27:44	service: /HosApp/dev/?/appointmentList	data: {"hospitalNumber":"0400880","language":"TH"}
======================================================================================================================================================
2019-09-07 19:27:47	service: /HosApp/dev/?/lastPrescription	data: {"hospitalNumber":"0400880","language":"th"}
======================================================================================================================================================
2019-09-07 19:27:48	service: /HosApp/dev/?/drugHistory	data: {"hospitalNumber":"0400880","language":"th","docNo":"","orderDate":"","periodFlag":"History"}
======================================================================================================================================================
2019-09-07 19:27:54	service: /HosApp/dev/?/lastPrescription	data: {"hospitalNumber":"0400880","language":"th"}
======================================================================================================================================================
2019-09-07 19:27:54	service: /HosApp/dev/?/drugHistory	data: {"hospitalNumber":"0400880","language":"th","docNo":"","orderDate":"","periodFlag":"History"}
======================================================================================================================================================
2019-09-07 19:35:33	service: /HosApp/dev/?/token	data: {"grantType":"client_credentials","clientId":"a20034a1829a9c4b761aba9d9296cd5f","hospitalNumber":"0400880"}
======================================================================================================================================================
2019-09-07 19:35:33	service: /HosApp/dev/?/patientProfile	data: {"hospitalNumber":"0400880","language":"TH"}
======================================================================================================================================================
2019-09-07 19:35:34	service: /HosApp/dev/?/appointmentList	data: {"hospitalNumber":"0400880","language":"TH"}
======================================================================================================================================================
2019-09-07 19:35:37	service: /HosApp/dev/?/lastPrescription	data: {"hospitalNumber":"0400880","language":"th"}
======================================================================================================================================================
2019-09-07 19:35:38	service: /HosApp/dev/?/drugHistory	data: {"hospitalNumber":"0400880","language":"th","docNo":"","orderDate":"","periodFlag":"History"}
======================================================================================================================================================
2019-09-07 19:56:33	service: /HosApp/dev/?/lastPrescription	data: {"hospitalNumber":"0400880","language":"th"}
======================================================================================================================================================
2019-09-07 19:56:33	service: /HosApp/dev/?/drugHistory	data: {"hospitalNumber":"0400880","language":"th","docNo":"","orderDate":"","periodFlag":"History"}
======================================================================================================================================================
2019-09-07 20:03:13	service: /HosApp/dev/?/lastPrescription	data: {"hospitalNumber":"0400880","language":"th"}
======================================================================================================================================================
2019-09-07 20:03:14	service: /HosApp/dev/?/drugHistory	data: {"hospitalNumber":"0400880","language":"th","docNo":"","orderDate":"","periodFlag":"History"}
======================================================================================================================================================
2019-09-07 20:33:19	service: /HosApp/dev/?/token	data: {"grantType":"client_credentials","clientId":"a20034a1829a9c4b761aba9d9296cd5f","hospitalNumber":"0400880"}
======================================================================================================================================================
2019-09-07 20:33:19	service: /HosApp/dev/?/patientProfile	data: {"hospitalNumber":"0400880","language":"TH"}
======================================================================================================================================================
2019-09-07 20:33:20	service: /HosApp/dev/?/appointmentList	data: {"hospitalNumber":"0400880","language":"TH"}
======================================================================================================================================================
2019-09-07 20:33:24	service: /HosApp/dev/?/lastPrescription	data: {"hospitalNumber":"0400880","language":"th"}
======================================================================================================================================================
2019-09-07 20:33:25	service: /HosApp/dev/?/drugHistory	data: {"hospitalNumber":"0400880","language":"th","docNo":"","orderDate":"","periodFlag":"History"}
======================================================================================================================================================
2019-09-07 20:45:57	service: /HosApp/dev/?/token	data: {"grantType":"client_credentials","clientId":"a20034a1829a9c4b761aba9d9296cd5f","hospitalNumber":"0400880"}
======================================================================================================================================================
2019-09-07 20:45:58	service: /HosApp/dev/?/patientProfile	data: {"hospitalNumber":"0400880","language":"TH"}
======================================================================================================================================================
2019-09-07 20:45:58	service: /HosApp/dev/?/appointmentList	data: {"hospitalNumber":"0400880","language":"TH"}
======================================================================================================================================================
2019-09-07 20:46:01	service: /HosApp/dev/?/lastPrescription	data: {"hospitalNumber":"0400880","language":"th"}
======================================================================================================================================================
2019-09-07 20:46:02	service: /HosApp/dev/?/drugHistory	data: {"hospitalNumber":"0400880","language":"th","docNo":"","orderDate":"","periodFlag":"History"}
======================================================================================================================================================
2019-09-07 20:46:26	service: /HosApp/dev/?/lastPrescription	data: {"hospitalNumber":"0400880","language":"th"}
======================================================================================================================================================
2019-09-07 20:46:27	service: /HosApp/dev/?/drugHistory	data: {"hospitalNumber":"0400880","language":"th","docNo":"","orderDate":"","periodFlag":"History"}
======================================================================================================================================================
2019-09-07 20:46:30	service: /HosApp/dev/?/lastPrescription	data: {"hospitalNumber":"0400880","language":"th"}
======================================================================================================================================================
2019-09-07 20:46:31	service: /HosApp/dev/?/drugHistory	data: {"hospitalNumber":"0400880","language":"th","docNo":"","orderDate":"","periodFlag":"History"}
======================================================================================================================================================
2019-09-07 20:46:39	service: /HosApp/dev/?/lastPrescription	data: {"hospitalNumber":"0400880","language":"th"}
======================================================================================================================================================
2019-09-07 20:46:39	service: /HosApp/dev/?/drugHistory	data: {"hospitalNumber":"0400880","language":"th","docNo":"","orderDate":"","periodFlag":"History"}
======================================================================================================================================================
2019-09-07 20:54:06	service: /HosApp/dev/?/token	data: {"grantType":"client_credentials","clientId":"a20034a1829a9c4b761aba9d9296cd5f","hospitalNumber":"0400880"}
======================================================================================================================================================
2019-09-07 20:54:06	service: /HosApp/dev/?/patientProfile	data: {"hospitalNumber":"0400880","language":"TH"}
======================================================================================================================================================
2019-09-07 20:54:07	service: /HosApp/dev/?/appointmentList	data: {"hospitalNumber":"0400880","language":"TH"}
======================================================================================================================================================
2019-09-07 20:54:13	service: /HosApp/dev/?/lastPrescription	data: {"hospitalNumber":"0400880","language":"th"}
======================================================================================================================================================
2019-09-07 20:54:13	service: /HosApp/dev/?/drugHistory	data: {"hospitalNumber":"0400880","language":"th","docNo":"","orderDate":"","periodFlag":"History"}
======================================================================================================================================================
2019-09-07 20:54:34	service: /HosApp/dev/?/lastPrescription	data: {"hospitalNumber":"0400880","language":"th"}
======================================================================================================================================================
2019-09-07 20:54:34	service: /HosApp/dev/?/drugHistory	data: {"hospitalNumber":"0400880","language":"th","docNo":"","orderDate":"","periodFlag":"History"}
======================================================================================================================================================
2019-09-07 20:54:42	service: /HosApp/dev/?/lastPrescription	data: {"hospitalNumber":"0400880","language":"th"}
======================================================================================================================================================
2019-09-07 20:54:43	service: /HosApp/dev/?/drugHistory	data: {"hospitalNumber":"0400880","language":"th","docNo":"","orderDate":"","periodFlag":"History"}
======================================================================================================================================================
2019-09-07 20:54:48	service: /HosApp/dev/?/lastPrescription	data: {"hospitalNumber":"0400880","language":"th"}
======================================================================================================================================================
2019-09-07 20:54:49	service: /HosApp/dev/?/drugHistory	data: {"hospitalNumber":"0400880","language":"th","docNo":"","orderDate":"","periodFlag":"History"}
======================================================================================================================================================
2019-09-07 20:56:08	service: /HosApp/dev/?/token	data: {"grantType":"client_credentials","clientId":"a20034a1829a9c4b761aba9d9296cd5f","hospitalNumber":"0400880"}
======================================================================================================================================================
2019-09-07 20:56:09	service: /HosApp/dev/?/patientProfile	data: {"hospitalNumber":"0400880","language":"TH"}
======================================================================================================================================================
2019-09-07 20:56:09	service: /HosApp/dev/?/appointmentList	data: {"hospitalNumber":"0400880","language":"TH"}
======================================================================================================================================================
2019-09-07 20:56:17	service: /HosApp/dev/?/lastPrescription	data: {"hospitalNumber":"0400880","language":"th"}
======================================================================================================================================================
2019-09-07 20:56:18	service: /HosApp/dev/?/drugHistory	data: {"hospitalNumber":"0400880","language":"th","docNo":"","orderDate":"","periodFlag":"History"}
======================================================================================================================================================
2019-09-07 20:57:31	service: /HosApp/dev/?/lastPrescription	data: {"hospitalNumber":"0400880","language":"th"}
======================================================================================================================================================
2019-09-07 20:57:31	service: /HosApp/dev/?/drugHistory	data: {"hospitalNumber":"0400880","language":"th","docNo":"","orderDate":"","periodFlag":"History"}
======================================================================================================================================================
2019-09-07 20:57:36	service: /HosApp/dev/?/lastPrescription	data: {"hospitalNumber":"0400880","language":"th"}
======================================================================================================================================================
2019-09-07 20:57:37	service: /HosApp/dev/?/drugHistory	data: {"hospitalNumber":"0400880","language":"th","docNo":"","orderDate":"","periodFlag":"History"}
======================================================================================================================================================
2019-09-07 20:58:23	service: /HosApp/dev/?/lastPrescription	data: {"hospitalNumber":"0400880","language":"th"}
======================================================================================================================================================
2019-09-07 20:58:24	service: /HosApp/dev/?/drugHistory	data: {"hospitalNumber":"0400880","language":"th","docNo":"","orderDate":"","periodFlag":"History"}
======================================================================================================================================================
2019-09-07 20:58:33	service: /HosApp/dev/?/lastPrescription	data: {"hospitalNumber":"0400880","language":"th"}
======================================================================================================================================================
2019-09-07 20:58:33	service: /HosApp/dev/?/drugHistory	data: {"hospitalNumber":"0400880","language":"th","docNo":"","orderDate":"","periodFlag":"History"}
======================================================================================================================================================
2019-09-07 20:58:38	service: /HosApp/dev/?/lastPrescription	data: {"hospitalNumber":"0400880","language":"th"}
======================================================================================================================================================
2019-09-07 20:58:38	service: /HosApp/dev/?/drugHistory	data: {"hospitalNumber":"0400880","language":"th","docNo":"","orderDate":"","periodFlag":"History"}
======================================================================================================================================================
2019-09-07 20:58:46	service: /HosApp/dev/?/lastPrescription	data: {"hospitalNumber":"0400880","language":"th"}
======================================================================================================================================================
2019-09-07 20:58:46	service: /HosApp/dev/?/drugHistory	data: {"hospitalNumber":"0400880","language":"th","docNo":"","orderDate":"","periodFlag":"History"}
======================================================================================================================================================
2019-09-07 20:59:25	service: /HosApp/dev/?/lastPrescription	data: {"hospitalNumber":"0400880","language":"th"}
======================================================================================================================================================
2019-09-07 20:59:25	service: /HosApp/dev/?/drugHistory	data: {"hospitalNumber":"0400880","language":"th","docNo":"","orderDate":"","periodFlag":"History"}
======================================================================================================================================================
2019-09-07 21:01:28	service: /HosApp/dev/?/lastPrescription	data: {"hospitalNumber":"0400880","language":"th"}
======================================================================================================================================================
2019-09-07 21:01:28	service: /HosApp/dev/?/drugHistory	data: {"hospitalNumber":"0400880","language":"th","docNo":"","orderDate":"","periodFlag":"History"}
======================================================================================================================================================
2019-09-07 21:01:31	service: /HosApp/dev/?/lastPrescription	data: {"hospitalNumber":"0400880","language":"th"}
======================================================================================================================================================
2019-09-07 21:01:32	service: /HosApp/dev/?/drugHistory	data: {"hospitalNumber":"0400880","language":"th","docNo":"","orderDate":"","periodFlag":"History"}
======================================================================================================================================================
