2019-09-01 17:23:34	service: /HosApp/dev/?/token	data: {"grantType":"client_credentials","clientId":"a20034a1829a9c4b761aba9d9296cd5f","hospitalNumber":"0607277"}
======================================================================================================================================================
2019-09-01 17:23:35	service: /HosApp/dev/?/patientProfile	data: {"hospitalNumber":"0607277","language":"TH"}
======================================================================================================================================================
2019-09-01 17:23:36	service: /HosApp/dev/?/appointmentList	data: {"hospitalNumber":"0607277","language":"TH"}
======================================================================================================================================================
2019-09-01 17:26:34	service: /HosApp/dev/?/appointmentList	data: {"hospitalNumber":"0607277","language":"TH"}
======================================================================================================================================================
2019-09-01 17:26:39	service: /HosApp/dev/?//api/phr/Payment/GetPaymentList	data: {"mrn":"0607277","language":"TH"}
======================================================================================================================================================
2019-09-01 17:33:39	service: /HosApp/dev/?/token	data: {"grantType":"client_credentials","clientId":"a20034a1829a9c4b761aba9d9296cd5f","hospitalNumber":"0607277"}
======================================================================================================================================================
2019-09-01 17:33:39	service: /HosApp/dev/?/patientProfile	data: {"hospitalNumber":"0607277","language":"TH"}
======================================================================================================================================================
2019-09-01 17:33:40	service: /HosApp/dev/?/appointmentList	data: {"hospitalNumber":"0607277","language":"TH"}
======================================================================================================================================================
2019-09-01 17:36:23	service: /HosApp/dev/?/token	data: {"grantType":"client_credentials","clientId":"a20034a1829a9c4b761aba9d9296cd5f","hospitalNumber":"0607277"}
======================================================================================================================================================
2019-09-01 17:36:24	service: /HosApp/dev/?/patientProfile	data: {"hospitalNumber":"0607277","language":"TH"}
======================================================================================================================================================
2019-09-01 17:36:24	service: /HosApp/dev/?/appointmentList	data: {"hospitalNumber":"0607277","language":"TH"}
======================================================================================================================================================
2019-09-01 17:36:26	service: /HosApp/dev/?/appointmentList	data: {"hospitalNumber":"0607277","language":"TH"}
======================================================================================================================================================
2019-09-01 17:36:30	service: /HosApp/dev/?/appointmentList	data: {"hospitalNumber":"0607277","language":"TH"}
======================================================================================================================================================
2019-09-01 17:50:08	service: /HosApp/dev/?/token	data: {"grantType":"client_credentials","clientId":"a20034a1829a9c4b761aba9d9296cd5f","hospitalNumber":"0607277"}
======================================================================================================================================================
2019-09-01 17:50:09	service: /HosApp/dev/?/patientProfile	data: {"hospitalNumber":"0607277","language":"TH"}
======================================================================================================================================================
2019-09-01 17:50:09	service: /HosApp/dev/?/appointmentList	data: {"hospitalNumber":"0607277","language":"TH"}
======================================================================================================================================================
2019-09-01 20:18:21	service: /HosApp/dev/?/token	data: {"grantType":"client_credentials","clientId":"a20034a1829a9c4b761aba9d9296cd5f","hospitalNumber":"0607277"}
======================================================================================================================================================
2019-09-01 20:18:21	service: /HosApp/dev/?/patientProfile	data: {"hospitalNumber":"0607277","language":"TH"}
======================================================================================================================================================
2019-09-01 20:18:22	service: /HosApp/dev/?/appointmentList	data: {"hospitalNumber":"0607277","language":"TH"}
======================================================================================================================================================
2019-09-01 21:56:37	service: /HosApp/dev/?/token	data: {"grantType":"client_credentials","clientId":"a20034a1829a9c4b761aba9d9296cd5f","hospitalNumber":"0607277"}
======================================================================================================================================================
2019-09-01 21:56:37	service: /HosApp/dev/?/patientProfile	data: {"hospitalNumber":"0607277","language":"TH"}
======================================================================================================================================================
2019-09-01 21:56:38	service: /HosApp/dev/?/appointmentList	data: {"hospitalNumber":"0607277","language":"TH"}
======================================================================================================================================================
2019-09-01 22:07:26	service: /HosApp/dev/?/token	data: {"grantType":"client_credentials","clientId":"a20034a1829a9c4b761aba9d9296cd5f","hospitalNumber":"0607277"}
======================================================================================================================================================
2019-09-01 22:07:27	service: /HosApp/dev/?/patientProfile	data: {"hospitalNumber":"0607277","language":"TH"}
======================================================================================================================================================
2019-09-01 22:07:27	service: /HosApp/dev/?/appointmentList	data: {"hospitalNumber":"0607277","language":"TH"}
======================================================================================================================================================
2019-09-01 22:08:46	service: /HosApp/dev/?/token	data: {"grantType":"client_credentials","clientId":"a20034a1829a9c4b761aba9d9296cd5f","hospitalNumber":"0607277"}
======================================================================================================================================================
2019-09-01 22:08:46	service: /HosApp/dev/?/patientProfile	data: {"hospitalNumber":"0607277","language":"TH"}
======================================================================================================================================================
2019-09-01 22:08:47	service: /HosApp/dev/?/appointmentList	data: {"hospitalNumber":"0607277","language":"TH"}
======================================================================================================================================================
2019-09-01 22:11:08	service: /HosApp/dev/?/token	data: {"grantType":"client_credentials","clientId":"a20034a1829a9c4b761aba9d9296cd5f","hospitalNumber":"0607277"}
======================================================================================================================================================
2019-09-01 22:11:08	service: /HosApp/dev/?/patientProfile	data: {"hospitalNumber":"0607277","language":"TH"}
======================================================================================================================================================
2019-09-01 22:11:09	service: /HosApp/dev/?/appointmentList	data: {"hospitalNumber":"0607277","language":"TH"}
======================================================================================================================================================
2019-09-01 22:13:39	service: /HosApp/dev/?/token	data: {"grantType":"client_credentials","clientId":"a20034a1829a9c4b761aba9d9296cd5f","hospitalNumber":"0607277"}
======================================================================================================================================================
2019-09-01 22:13:40	service: /HosApp/dev/?/patientProfile	data: {"hospitalNumber":"0607277","language":"TH"}
======================================================================================================================================================
2019-09-01 22:13:41	service: /HosApp/dev/?/appointmentList	data: {"hospitalNumber":"0607277","language":"TH"}
======================================================================================================================================================
2019-09-01 22:15:49	service: /HosApp/dev/?/token	data: {"grantType":"client_credentials","clientId":"a20034a1829a9c4b761aba9d9296cd5f","hospitalNumber":"0607277"}
======================================================================================================================================================
2019-09-01 22:15:50	service: /HosApp/dev/?/patientProfile	data: {"hospitalNumber":"0607277","language":"TH"}
======================================================================================================================================================
2019-09-01 22:15:50	service: /HosApp/dev/?/appointmentList	data: {"hospitalNumber":"0607277","language":"TH"}
======================================================================================================================================================
2019-09-01 22:53:32	service: /HosApp/dev/?/token	data: {"grantType":"client_credentials","clientId":"a20034a1829a9c4b761aba9d9296cd5f","hospitalNumber":"0607277"}
======================================================================================================================================================
2019-09-01 22:53:32	service: /HosApp/dev/?/patientProfile	data: {"hospitalNumber":"0607277","language":"TH"}
======================================================================================================================================================
2019-09-01 22:53:33	service: /HosApp/dev/?/appointmentList	data: {"hospitalNumber":"0607277","language":"TH"}
======================================================================================================================================================
2019-09-01 22:54:56	service: /HosApp/dev/?/token	data: {"grantType":"client_credentials","clientId":"a20034a1829a9c4b761aba9d9296cd5f","hospitalNumber":"0607277"}
======================================================================================================================================================
2019-09-01 22:54:57	service: /HosApp/dev/?/patientProfile	data: {"hospitalNumber":"0607277","language":"TH"}
======================================================================================================================================================
2019-09-01 22:54:57	service: /HosApp/dev/?/appointmentList	data: {"hospitalNumber":"0607277","language":"TH"}
======================================================================================================================================================
2019-09-01 22:56:30	service: /HosApp/dev/?/token	data: {"grantType":"client_credentials","clientId":"a20034a1829a9c4b761aba9d9296cd5f","hospitalNumber":"0607277"}
======================================================================================================================================================
2019-09-01 22:56:30	service: /HosApp/dev/?/patientProfile	data: {"hospitalNumber":"0607277","language":"TH"}
======================================================================================================================================================
2019-09-01 22:56:31	service: /HosApp/dev/?/appointmentList	data: {"hospitalNumber":"0607277","language":"TH"}
======================================================================================================================================================
2019-09-01 22:57:21	service: /HosApp/dev/?/token	data: {"grantType":"client_credentials","clientId":"a20034a1829a9c4b761aba9d9296cd5f","hospitalNumber":"0607277"}
======================================================================================================================================================
2019-09-01 22:57:22	service: /HosApp/dev/?/patientProfile	data: {"hospitalNumber":"0607277","language":"TH"}
======================================================================================================================================================
2019-09-01 22:57:22	service: /HosApp/dev/?/appointmentList	data: {"hospitalNumber":"0607277","language":"TH"}
======================================================================================================================================================
2019-09-01 22:58:16	service: /HosApp/dev/?/token	data: {"grantType":"client_credentials","clientId":"a20034a1829a9c4b761aba9d9296cd5f","hospitalNumber":"0607277"}
======================================================================================================================================================
2019-09-01 22:58:16	service: /HosApp/dev/?/patientProfile	data: {"hospitalNumber":"0607277","language":"TH"}
======================================================================================================================================================
2019-09-01 22:58:17	service: /HosApp/dev/?/appointmentList	data: {"hospitalNumber":"0607277","language":"TH"}
======================================================================================================================================================
2019-09-01 22:59:59	service: /HosApp/dev/?/token	data: {"grantType":"client_credentials","clientId":"a20034a1829a9c4b761aba9d9296cd5f","hospitalNumber":"0607277"}
======================================================================================================================================================
2019-09-01 22:59:59	service: /HosApp/dev/?/patientProfile	data: {"hospitalNumber":"0607277","language":"TH"}
======================================================================================================================================================
2019-09-01 23:00:00	service: /HosApp/dev/?/appointmentList	data: {"hospitalNumber":"0607277","language":"TH"}
======================================================================================================================================================
2019-09-01 23:00:50	service: /HosApp/dev/?/token	data: {"grantType":"client_credentials","clientId":"a20034a1829a9c4b761aba9d9296cd5f","hospitalNumber":"0607277"}
======================================================================================================================================================
2019-09-01 23:00:50	service: /HosApp/dev/?/patientProfile	data: {"hospitalNumber":"0607277","language":"TH"}
======================================================================================================================================================
2019-09-01 23:00:51	service: /HosApp/dev/?/appointmentList	data: {"hospitalNumber":"0607277","language":"TH"}
======================================================================================================================================================
2019-09-01 23:53:40	service: /HosApp/dev/?/token	data: {"grantType":"client_credentials","clientId":"a20034a1829a9c4b761aba9d9296cd5f","hospitalNumber":"0607277"}
======================================================================================================================================================
2019-09-01 23:53:41	service: /HosApp/dev/?/patientProfile	data: {"hospitalNumber":"0607277","language":"TH"}
======================================================================================================================================================
2019-09-01 23:53:41	service: /HosApp/dev/?/appointmentList	data: {"hospitalNumber":"0607277","language":"TH"}
======================================================================================================================================================
