2019-11-17 11:53:47	203.154.116.83	service: /HosApp/dev/?/token	data: {"grantType":"client_credentials","clientId":"1241829b399566934630c59775fba554","hospitalNumber":"1149169"}
======================================================================================================================================================
2019-11-17 11:53:48	203.154.116.83	service: /HosApp/dev/?/patientProfile	data: {"hospitalNumber":"1149169","language":"TH"}
======================================================================================================================================================
2019-11-17 11:53:49	203.154.116.83	service: /HosApp/dev/?/appointmentList	data: {"hospitalNumber":"1149169","language":"TH"}
======================================================================================================================================================
2019-11-17 11:53:49	203.154.116.83	service: /HosApp/dev/?/getQueueInfo	data: {"hospitalNumber":"1149169","language":"TH","queueList":[{"queueSystem":"","queueNo":,"appointmentTime":""}],"requestType":"2","fromSystem":"HosApp"}
======================================================================================================================================================
2019-11-17 11:53:56	203.154.116.83	service: /HosApp/dev/?/medicalWelfares	data: {"hospitalNumber":"1149169","language":"th"}
======================================================================================================================================================
2019-11-17 11:53:59	203.154.116.83	service: /HosApp/dev/?/patientProfile	data: {"hospitalNumber":"1149169","language":"TH"}
======================================================================================================================================================
2019-11-17 11:53:59	203.154.116.83	service: /HosApp/dev/?/appointmentList	data: {"hospitalNumber":"1149169","language":"TH"}
======================================================================================================================================================
2019-11-17 11:54:00	203.154.116.83	service: /HosApp/dev/?/getQueueInfo	data: {"hospitalNumber":"1149169","language":"TH","queueList":[{"queueSystem":"","queueNo":,"appointmentTime":""}],"requestType":"2","fromSystem":"HosApp"}
======================================================================================================================================================
2019-11-17 11:54:04	203.154.116.83	service: /HosApp/dev/?/patientProfile	data: {"hospitalNumber":"1149169","language":"TH"}
======================================================================================================================================================
2019-11-17 11:54:05	203.154.116.83	service: /HosApp/dev/?/appointmentList	data: {"hospitalNumber":"1149169","language":"TH"}
======================================================================================================================================================
2019-11-17 11:54:05	203.154.116.83	service: /HosApp/dev/?/getQueueInfo	data: {"hospitalNumber":"1149169","language":"TH","queueList":[{"queueSystem":"","queueNo":,"appointmentTime":""}],"requestType":"2","fromSystem":"HosApp"}
======================================================================================================================================================
2019-11-17 11:54:09	203.154.116.83	service: /HosApp/dev/?/appointmentList	data: {"hospitalNumber":"1149169","language":"TH"}
======================================================================================================================================================
2019-11-17 11:54:11	203.154.116.83	service: /HosApp/dev/?/patientProfile	data: {"hospitalNumber":"1149169","language":"TH"}
======================================================================================================================================================
2019-11-17 11:54:12	203.154.116.83	service: /HosApp/dev/?/appointmentList	data: {"hospitalNumber":"1149169","language":"TH"}
======================================================================================================================================================
2019-11-17 11:54:12	203.154.116.83	service: /HosApp/dev/?/getQueueInfo	data: {"hospitalNumber":"1149169","language":"TH","queueList":[{"queueSystem":"","queueNo":,"appointmentTime":""}],"requestType":"2","fromSystem":"HosApp"}
======================================================================================================================================================
2019-11-17 11:54:33	203.154.116.83	service: /HosApp/dev/?/patientProfile	data: {"hospitalNumber":"1149169","language":"TH"}
======================================================================================================================================================
2019-11-17 11:54:34	203.154.116.83	service: /HosApp/dev/?/appointmentList	data: {"hospitalNumber":"1149169","language":"TH"}
======================================================================================================================================================
2019-11-17 11:54:34	203.154.116.83	service: /HosApp/dev/?/getQueueInfo	data: {"hospitalNumber":"1149169","language":"TH","queueList":[{"queueSystem":"","queueNo":,"appointmentTime":""}],"requestType":"2","fromSystem":"HosApp"}
======================================================================================================================================================
2019-11-17 11:54:40	203.154.116.83	service: /HosApp/dev/?/patientProfile	data: {"hospitalNumber":"1149169","language":"TH"}
======================================================================================================================================================
2019-11-17 11:54:40	203.154.116.83	service: /HosApp/dev/?/appointmentList	data: {"hospitalNumber":"1149169","language":"TH"}
======================================================================================================================================================
2019-11-17 11:54:41	203.154.116.83	service: /HosApp/dev/?/getQueueInfo	data: {"hospitalNumber":"1149169","language":"TH","queueList":[{"queueSystem":"","queueNo":,"appointmentTime":""}],"requestType":"2","fromSystem":"HosApp"}
======================================================================================================================================================
