08:34:44	[refresh] status: 1, expiresDateTime: 20191001 083944
08:41:56	[refresh] status: 1, expiresDateTime: 20191001 084656
10:49:04	[refresh] status: 1, expiresDateTime: 20191001 105403
01:53:02	[refresh] status: 1, expiresDateTime: 20191001 135802
