07:00:06	[refresh] status: 1, expiresDateTime: 20191003 070506
08:36:32	[refresh] status: 1, expiresDateTime: 20191003 084131
02:51:23	[refresh] status: 1, expiresDateTime: 20191003 145622
03:01:00	[refresh] status: 1, expiresDateTime: 20191003 150559
04:19:46	[refresh] status: 1, expiresDateTime: 20191003 162445
